<svg width="48" height="48" viewBox="0 0 48 48" fill="none" xmlns="http://www.w3.org/2000/svg">
<path d="M24 0L28.2724 5.28138L34.4132 2.37675L35.971 8.98884L42.764 9.03624L41.2986 15.6694L47.3983 18.6595L43.2 24L47.3983 29.3405L41.2986 32.3306L42.764 38.9638L35.971 39.0112L34.4132 45.6233L28.2724 42.7186L24 48L19.7276 42.7186L13.5868 45.6233L12.029 39.0112L5.23604 38.9638L6.7014 32.3306L0.60173 29.3405L4.8 24L0.60173 18.6595L6.7014 15.6694L5.23604 9.03624L12.029 8.98884L13.5868 2.37675L19.7276 5.28138L24 0Z" fill="#EB8097"/>
<path d="M16.8808 24.3574L20.3809 30.4195L19.229 31.0845L14.0816 29.1489L16.2066 32.8295L14.821 33.6295L11.321 27.5674L12.4814 26.8974L17.6202 28.838L15.4952 25.1574L16.8808 24.3574ZM25.859 25.7556L26.509 26.8814L21.8151 29.5914L18.3151 23.5293L22.8964 20.8843L23.5464 22.0101L20.3594 23.8501L21.1194 25.1665L23.934 23.5415L24.564 24.6327L21.7494 26.2577L22.5594 27.6606L25.859 25.7556ZM33.2033 14.9336L34.7201 22.1408L33.2132 23.0108L29.5095 19.6758L30.5025 24.5758L29.0043 25.4408L23.5124 20.5286L24.9674 19.6886L28.7957 23.1594L27.7646 18.0736L29.0637 17.3236L32.9293 20.8191L31.8609 15.7086L33.2033 14.9336Z" fill="white"/>
</svg>
